tb_bms_reativo.vcd
$date
	Fri Jul 10 17:18:09 2026
$end
$version
	Icarus Verilog
$end
$timescale
	1ps
$end
$scope module tb_bms_reativo $end
$var wire 1 ! I2C_SDA $end
$var wire 1 " discharging_now $end
$var wire 1 # charging_now $end
$var wire 4 $ bal_cmd_out [3:0] $end
$var wire 10 % V4_dig [9:0] $end
$var wire 10 & V3_dig [9:0] $end
$var wire 10 ' V2_dig [9:0] $end
$var wire 10 ( V1_dig [9:0] $end
$var wire 1 ) UV_FLG $end
$var wire 10 * T_dig [9:0] $end
$var wire 10 + SOC_DATA_OUT [9:0] $end
$var wire 1 , OV_FLG $end
$var wire 1 - OT_FLG $end
$var wire 1 . LK_FLG $end
$var wire 10 / I_dig [9:0] $end
$var wire 1 0 I_DIR $end
$var wire 3 1 Estado_atual [2:0] $end
$var wire 1 2 DSCHG_EN $end
$var wire 1 3 CHG_EN $end
$var wire 1 4 BAL_FLG $end
$var reg 1 5 CHG_PWR_GD $end
$var reg 1 6 I2C_SCL $end
$var reg 1 7 charger_present $end
$var reg 10 8 ext_I_bias [9:0] $end
$var reg 10 9 ext_T_bias [9:0] $end
$var reg 1 : i2c_sda_master_drive_low $end
$var reg 1 ; load_present $end
$var reg 10 < preset_I [9:0] $end
$var reg 1 = preset_I_DIR $end
$var reg 10 > preset_T [9:0] $end
$var reg 10 ? preset_V1 [9:0] $end
$var reg 10 @ preset_V2 [9:0] $end
$var reg 10 A preset_V3 [9:0] $end
$var reg 10 B preset_V4 [9:0] $end
$var reg 1 C preset_en $end
$var reg 10 D soc_antes [9:0] $end
$var reg 1 E sys_clk $end
$var reg 1 F sys_rst $end
$var integer 32 G fase [31:0] $end
$scope module dut $end
$var wire 1 5 CHG_PWR_GD $end
$var wire 1 6 I2C_SCL $end
$var wire 1 ! I2C_SDA $end
$var wire 1 H read_en $end
$var wire 1 E sys_clk $end
$var wire 1 F sys_rst $end
$var wire 1 I verify_bal_flg $end
$var wire 2 J tipo_falha_sel [1:0] $end
$var wire 1 K sample_soc $end
$var wire 10 L resultado_ula [9:0] $end
$var wire 3 M mux_B_sel [2:0] $end
$var wire 3 N mux_A_sel [2:0] $end
$var wire 1 O load_V $end
$var wire 1 P load_T $end
$var wire 1 Q load_I $end
$var wire 10 R lim_temp [9:0] $end
$var wire 10 S lim_sobredescarga [9:0] $end
$var wire 10 T lim_sobrecarga [9:0] $end
$var wire 10 U lim_corrente_min [9:0] $end
$var wire 10 V lim_corrente_max [9:0] $end
$var wire 10 W lim_corrente_fuga [9:0] $end
$var wire 1 X i2c_cfg_wr_en $end
$var wire 10 Y i2c_cfg_data [9:0] $end
$var wire 8 Z i2c_cfg_addr [7:0] $end
$var wire 10 [ dado_B [9:0] $end
$var wire 10 \ dado_A [9:0] $end
$var wire 1 ] cmp_true $end
$var wire 10 ^ capacidade_nom [9:0] $end
$var wire 4 _ bal_cmd_out [3:0] $end
$var wire 1 ` atualiza_falhas $end
$var wire 10 a V4_reg [9:0] $end
$var wire 10 b V4_dig [9:0] $end
$var wire 10 c V3_reg [9:0] $end
$var wire 10 d V3_dig [9:0] $end
$var wire 10 e V2_reg [9:0] $end
$var wire 10 f V2_dig [9:0] $end
$var wire 10 g V1_reg [9:0] $end
$var wire 10 h V1_dig [9:0] $end
$var wire 1 ) UV_FLG $end
$var wire 10 i T_reg [9:0] $end
$var wire 10 j T_dig [9:0] $end
$var wire 10 k SOC_atual [9:0] $end
$var wire 10 l SOC_DATA_OUT [9:0] $end
$var wire 3 m Opcode_ula [2:0] $end
$var wire 1 , OV_FLG $end
$var wire 1 - OT_FLG $end
$var wire 1 . LK_FLG $end
$var wire 10 n I_reg [9:0] $end
$var wire 10 o I_dig [9:0] $end
$var wire 1 0 I_DIR $end
$var wire 3 p Estado_atual [2:0] $end
$var wire 1 2 DSCHG_EN $end
$var wire 1 3 CHG_EN $end
$var wire 1 4 BAL_FLG $end
$var wire 1 q BAL_EN_4 $end
$var wire 1 r BAL_EN_3 $end
$var wire 1 s BAL_EN_2 $end
$var wire 1 t BAL_EN_1 $end
$scope module u_ctrl_bal $end
$var wire 1 E sys_clk $end
$var wire 1 F sys_rst $end
$var wire 1 I verifica_bal_flg $end
$var wire 10 u V4_reg [9:0] $end
$var wire 10 v V3_reg [9:0] $end
$var wire 10 w V2_reg [9:0] $end
$var wire 10 x V1_reg [9:0] $end
$var parameter 10 y BAL_DELTA $end
$var reg 1 t BAL_EN_1 $end
$var reg 1 s BAL_EN_2 $end
$var reg 1 r BAL_EN_3 $end
$var reg 1 q BAL_EN_4 $end
$var reg 1 4 BAL_FLG $end
$var reg 4 z bal_cmd_calc [3:0] $end
$var reg 10 { v_min [9:0] $end
$upscope $end
$scope module u_ctrl_pot $end
$var wire 1 5 CHG_PWR_GD $end
$var wire 1 ) UV_FLG $end
$var wire 1 , OV_FLG $end
$var wire 1 - OT_FLG $end
$var wire 1 . LK_FLG $end
$var wire 3 | Estado_atual [2:0] $end
$var parameter 3 } ST_FAULT $end
$var parameter 3 ~ ST_INIT $end
$var reg 1 3 CHG_EN $end
$var reg 1 2 DSCHG_EN $end
$upscope $end
$scope module u_fsm $end
$var wire 1 E sys_clk $end
$var wire 1 F sys_rst $end
$var wire 1 ) UV_FLG $end
$var wire 1 , OV_FLG $end
$var wire 1 - OT_FLG $end
$var wire 1 . LK_FLG $end
$var wire 1 0 I_DIR $end
$var parameter 3 !" BAL $end
$var parameter 3 "" CLT $end
$var parameter 3 #" CMP $end
$var parameter 3 $" ST_CALC_BAL_SOC $end
$var parameter 3 %" ST_CHECK_LK $end
$var parameter 3 &" ST_CHECK_OT $end
$var parameter 3 '" ST_CHECK_OV $end
$var parameter 3 (" ST_CHECK_UV $end
$var parameter 3 )" ST_FAULT $end
$var parameter 3 *" ST_INIT $end
$var parameter 3 +" ST_READ_SENSORS $end
$var reg 3 ," Estado_atual [2:0] $end
$var reg 3 -" Opcode_ula [2:0] $end
$var reg 1 ` atualiza_falhas $end
$var reg 2 ." cell_index [1:0] $end
$var reg 2 /" cell_index_next [1:0] $end
$var reg 1 Q load_I $end
$var reg 1 P load_T $end
$var reg 1 O load_V $end
$var reg 3 0" mux_A_sel [2:0] $end
$var reg 3 1" mux_B_sel [2:0] $end
$var reg 1 K sample_soc $end
$var reg 3 2" state_next [2:0] $end
$var reg 2 3" tipo_falha_sel [1:0] $end
$upscope $end
$scope module u_i2c_cfg $end
$var wire 1 6 i2c_scl $end
$var wire 1 ! i2c_sda $end
$var wire 1 4" scl_fall $end
$var wire 1 5" scl_rise $end
$var wire 1 6" sda_in $end
$var wire 1 7" start_cond $end
$var wire 1 8" stop_cond $end
$var wire 1 E sys_clk $end
$var wire 1 F sys_rst $end
$var parameter 7 9" I2C_ADDR $end
$var parameter 4 :" ST_ACK_ADDR $end
$var parameter 4 ;" ST_ACK_DATA_H $end
$var parameter 4 <" ST_ACK_DATA_L $end
$var parameter 4 =" ST_ACK_REG $end
$var parameter 4 >" ST_ADDR $end
$var parameter 4 ?" ST_DATA_H $end
$var parameter 4 @" ST_DATA_L $end
$var parameter 4 A" ST_IDLE $end
$var parameter 4 B" ST_IGNORE $end
$var parameter 4 C" ST_REG $end
$var reg 3 D" bit_count [2:0] $end
$var reg 8 E" cfg_addr [7:0] $end
$var reg 10 F" cfg_data [9:0] $end
$var reg 1 X cfg_wr_en $end
$var reg 16 G" data_tmp [15:0] $end
$var reg 8 H" reg_addr_tmp [7:0] $end
$var reg 8 I" rx_shift [7:0] $end
$var reg 1 J" scl_d $end
$var reg 1 K" sda_d $end
$var reg 1 L" sda_drive_low $end
$var reg 4 M" state [3:0] $end
$upscope $end
$scope module u_mux_A $end
$var wire 3 N" mux_sel [2:0] $end
$var wire 10 O" V4_reg [9:0] $end
$var wire 10 P" V3_reg [9:0] $end
$var wire 10 Q" V2_reg [9:0] $end
$var wire 10 R" V1_reg [9:0] $end
$var wire 10 S" T_reg [9:0] $end
$var wire 10 T" I_reg [9:0] $end
$var reg 10 U" dado_A [9:0] $end
$upscope $end
$scope module u_mux_B $end
$var wire 3 V" mux_B_sel [2:0] $end
$var wire 10 W" lim_temp [9:0] $end
$var wire 10 X" lim_sobredescarga [9:0] $end
$var wire 10 Y" lim_sobrecarga [9:0] $end
$var wire 10 Z" lim_corrente_fuga [9:0] $end
$var wire 10 [" capacidade_nom [9:0] $end
$var reg 10 \" dado_B [9:0] $end
$upscope $end
$scope module u_reg_status $end
$var wire 1 ` atualiza_falhas $end
$var wire 1 E sys_clk $end
$var wire 1 F sys_rst $end
$var wire 2 ]" tipo_falha_sel [1:0] $end
$var wire 1 ] cmp_true $end
$var reg 1 . LK_FLG $end
$var reg 1 - OT_FLG $end
$var reg 1 , OV_FLG $end
$var reg 1 ) UV_FLG $end
$upscope $end
$scope module u_regs_in $end
$var wire 1 E clk $end
$var wire 1 Q load_I $end
$var wire 1 P load_T $end
$var wire 1 O load_V $end
$var wire 1 F rst $end
$var wire 10 ^" V4_dig [9:0] $end
$var wire 10 _" V3_dig [9:0] $end
$var wire 10 `" V2_dig [9:0] $end
$var wire 10 a" V1_dig [9:0] $end
$var wire 10 b" T_dig [9:0] $end
$var wire 10 c" I_dig [9:0] $end
$var reg 10 d" I_reg [9:0] $end
$var reg 10 e" T_reg [9:0] $end
$var reg 10 f" V1_reg [9:0] $end
$var reg 10 g" V2_reg [9:0] $end
$var reg 10 h" V3_reg [9:0] $end
$var reg 10 i" V4_reg [9:0] $end
$upscope $end
$scope module u_rom $end
$var wire 8 j" cfg_addr [7:0] $end
$var wire 10 k" cfg_data [9:0] $end
$var wire 1 X cfg_wr_en $end
$var wire 1 E clk $end
$var wire 1 H read_en $end
$var wire 1 F rst $end
$var parameter 8 l" REG_CAPACIDADE_NOM $end
$var parameter 8 m" REG_LIM_CORRENTE_MAX $end
$var parameter 8 n" REG_LIM_CORRENTE_MIN $end
$var parameter 8 o" REG_LIM_SOBRECARGA $end
$var parameter 8 p" REG_LIM_SOBREDESCARGA $end
$var parameter 8 q" REG_LIM_TEMP $end
$var reg 10 r" capacidade_nom [9:0] $end
$var reg 10 s" lim_corrente_fuga [9:0] $end
$var reg 10 t" lim_corrente_max [9:0] $end
$var reg 10 u" lim_corrente_min [9:0] $end
$var reg 10 v" lim_sobrecarga [9:0] $end
$var reg 10 w" lim_sobredescarga [9:0] $end
$var reg 10 x" lim_temp [9:0] $end
$upscope $end
$scope module u_soc $end
$var wire 10 y" I_reg [9:0] $end
$var wire 10 z" capacidade_nom [9:0] $end
$var wire 1 K sample_tick $end
$var wire 1 E sys_clk $end
$var wire 1 F sys_rst $end
$var wire 1 0 I_DIR $end
$var parameter 10 {" SAMPLE_TIME $end
$var parameter 10 |" SOC_FULL_SCALE $end
$var reg 10 }" SOC_DATA_OUT [9:0] $end
$var reg 10 ~" SOC_atual [9:0] $end
$var reg 32 !# delta_soc [31:0] $end
$var reg 32 "# next_soc [31:0] $end
$upscope $end
$scope module u_ula $end
$var wire 3 ## Opcode_ula [2:0] $end
$var wire 10 $# dado_A [9:0] $end
$var wire 10 %# dado_B [9:0] $end
$var parameter 3 &# ADD $end
$var parameter 3 '# BAL $end
$var parameter 3 (# CLT $end
$var parameter 3 )# CMP $end
$var parameter 3 *# PAS $end
$var parameter 3 +# SUB $end
$var reg 1 ] cmp_true $end
$var reg 10 ,# resultado_ula [9:0] $end
$var reg 11 -# temp_result [10:0] $end
$var reg 1 I verify_bal_flg $end
$upscope $end
$upscope $end
$scope module u_bat $end
$var wire 1 3 CHG_EN $end
$var wire 1 2 DSCHG_EN $end
$var wire 3 .# Estado_atual [2:0] $end
$var wire 4 /# bal_cmd_out [3:0] $end
$var wire 1 7 charger_present $end
$var wire 1 # charging_now $end
$var wire 1 " discharging_now $end
$var wire 10 0# ext_I_bias [9:0] $end
$var wire 10 1# ext_T_bias [9:0] $end
$var wire 1 ; load_present $end
$var wire 10 2# preset_I [9:0] $end
$var wire 1 = preset_I_DIR $end
$var wire 10 3# preset_T [9:0] $end
$var wire 10 4# preset_V1 [9:0] $end
$var wire 10 5# preset_V2 [9:0] $end
$var wire 10 6# preset_V3 [9:0] $end
$var wire 10 7# preset_V4 [9:0] $end
$var wire 1 C preset_en $end
$var wire 1 E sys_clk $end
$var wire 1 F sys_rst $end
$var wire 1 8# tick $end
$var parameter 10 9# BAL_DRAIN_STEP $end
$var parameter 10 :# CHG_STEP $end
$var parameter 10 ;# DSCHG_STEP $end
$var parameter 10 <# I_CHG_BASE $end
$var parameter 10 =# I_DSCHG_BASE $end
$var parameter 10 ># I_IDLE $end
$var parameter 10 ?# I_MAX $end
$var parameter 10 @# LEAK_1 $end
$var parameter 10 A# LEAK_2 $end
$var parameter 10 B# LEAK_3 $end
$var parameter 10 C# LEAK_4 $end
$var parameter 3 D# ST_CALC_BAL_SOC $end
$var parameter 10 E# T_AMBIENT $end
$var parameter 10 F# T_COOL_STEP $end
$var parameter 10 G# T_HEAT_STEP $end
$var parameter 10 H# T_MAX $end
$var parameter 10 I# V1_INIT $end
$var parameter 10 J# V2_INIT $end
$var parameter 10 K# V3_INIT $end
$var parameter 10 L# V4_INIT $end
$var parameter 10 M# V_MAX $end
$var parameter 10 N# V_MIN $end
$var reg 1 0 I_DIR $end
$var reg 10 O# I_dig [9:0] $end
$var reg 10 P# T_dig [9:0] $end
$var reg 10 Q# V1_dig [9:0] $end
$var reg 10 R# V2_dig [9:0] $end
$var reg 10 S# V3_dig [9:0] $end
$var reg 10 T# V4_dig [9:0] $end
$var integer 32 U# i_next [31:0] $end
$var integer 32 V# t_next [31:0] $end
$var integer 32 W# v1_next [31:0] $end
$var integer 32 X# v2_next [31:0] $end
$var integer 32 Y# v3_next [31:0] $end
$var integer 32 Z# v4_next [31:0] $end
$scope function clamp10 $end
$var reg 10 [# maximo [9:0] $end
$var reg 10 \# minimo [9:0] $end
$var integer 32 ]# valor [31:0] $end
$upscope $end
$upscope $end
$scope begin wait_calc_bal $end
$upscope $end
$scope begin wait_read_sensors $end
$upscope $end
$scope task check $end
$var reg 1 ^# esperado $end
$var reg 201 _# nome [200:0] $end
$var reg 1 `# sinal $end
$upscope $end
$scope task check_relacao $end
$var reg 1 a# modo $end
$var reg 201 b# nome [200:0] $end
$var reg 10 c# ref_val [9:0] $end
$var reg 10 d# valor [9:0] $end
$upscope $end
$scope task espera_amostras_soc $end
$var integer 32 e# n [31:0] $end
$upscope $end
$scope task espera_varreduras $end
$var integer 32 f# k [31:0] $end
$var integer 32 g# n [31:0] $end
$upscope $end
$scope task i2c_delay $end
$upscope $end
$scope task i2c_start $end
$upscope $end
$scope task i2c_stop $end
$upscope $end
$scope task i2c_write_byte $end
$var reg 8 h# data [7:0] $end
$var integer 32 i# i [31:0] $end
$upscope $end
$scope task i2c_write_config $end
$var reg 8 j# reg_addr [7:0] $end
$var reg 10 k# value [9:0] $end
$upscope $end
$scope task limpa_e_aguarda $end
$upscope $end
$scope task preset_bateria $end
$var reg 1 l# dir $end
$var reg 10 m# ii [9:0] $end
$var reg 10 n# tt [9:0] $end
$var reg 10 o# v1 [9:0] $end
$var reg 10 p# v2 [9:0] $end
$var reg 10 q# v3 [9:0] $end
$var reg 10 r# v4 [9:0] $end
$upscope $end
$upscope $end
$enddefinitions $end
$comment Show the parameter values. $end
$dumpall
b0 N#
b1111111111 M#
b101110010 L#
b101111110 K#
b101111000 J#
b101111100 I#
b1111111111 H#
b100 G#
b1 F#
b11001 E#
b111 D#
b10 C#
b0 B#
b1 A#
b0 @#
b1111111111 ?#
b10 >#
b11110 =#
b1010000 <#
b110 ;#
b110 :#
b100 9#
b1 +#
b11 *#
b10 )#
b100 (#
b101 '#
b0 &#
b1111101000 |"
b1 {"
b100 q"
b1 p"
b0 o"
b11 n"
b10 m"
b101 l"
b11 C"
b1001 B"
b0 A"
b111 @"
b101 ?"
b1 >"
b100 ="
b1000 <"
b110 ;"
b10 :"
b1000010 9"
b1 +"
b0 *"
b101 )"
b11 ("
b10 '"
b100 &"
b110 %"
b111 $"
b10 #"
b100 ""
b101 !"
b0 ~
b101 }
b1010 y
$end
#0
$dumpvars
bx r#
bx q#
bx p#
bx o#
bx n#
bx m#
xl#
bx k#
bx j#
bx i#
bx h#
bx g#
bx f#
bx e#
bx d#
bx c#
bx b#
xa#
x`#
bx _#
x^#
bx ]#
bx \#
bx [#
bx Z#
bx Y#
bx X#
bx W#
bx V#
bx U#
b101110010 T#
b101111110 S#
b101111000 R#
b101111100 Q#
b11001 P#
b10 O#
08#
b0 7#
b0 6#
b0 5#
b0 4#
b0 3#
b0 2#
b0 1#
b0 0#
b0 /#
b0 .#
b0 -#
b0 ,#
b110100100 %#
b0 $#
b10 ##
b1111101000 "#
b0 !#
b1111101000 ~"
b1111101000 }"
b111110100 z"
b0 y"
b111100 x"
b100101100 w"
b110100100 v"
b0 u"
b1010000 t"
b1010000 s"
b111110100 r"
b0 k"
b0 j"
b0 i"
b0 h"
b0 g"
b0 f"
b0 e"
b0 d"
b10 c"
b11001 b"
b101111100 a"
b101111000 `"
b101111110 _"
b101110010 ^"
b0 ]"
b110100100 \"
b111110100 ["
b1010000 Z"
b110100100 Y"
b100101100 X"
b111100 W"
b0 V"
b0 U"
b0 T"
b0 S"
b0 R"
b0 Q"
b0 P"
b0 O"
b0 N"
b0 M"
0L"
1K"
1J"
b0 I"
b0 H"
b0 G"
b0 F"
b0 E"
b111 D"
08"
07"
16"
05"
04"
b0 3"
b1 2"
b0 1"
b0 0"
b0 /"
b0 ."
b10 -"
b0 ,"
b0 |
b0 {
bx z
b0 x
b0 w
b0 v
b0 u
0t
0s
0r
0q
b0 p
b10 o
b0 n
b10 m
b1111101000 l
b1111101000 k
b11001 j
b0 i
b101111100 h
b0 g
b101111000 f
b0 e
b101111110 d
b0 c
b101110010 b
b0 a
0`
b0 _
b111110100 ^
0]
b0 \
b110100100 [
b0 Z
b0 Y
0X
b1010000 W
b1010000 V
b0 U
b110100100 T
b100101100 S
b111100 R
0Q
0P
0O
b0 N
b0 M
b0 L
0K
b0 J
0I
1H
b0 G
1F
0E
bx D
0C
b0 B
b0 A
b0 @
b0 ?
b0 >
1=
b0 <
0;
0:
b0 9
b0 8
07
16
15
04
03
02
b0 1
00
b10 /
0.
0-
0,
b1111101000 +
b11001 *
0)
b101111100 (
b101111000 '
b101111110 &
b101110010 %
b0 $
0#
0"
1!
$end
#5000
1E
#10000
0E
#15000
1E
#20000
0E
#25000
1E
#30000
0E
1C
b100011 >
b100011 3#
b110010 <
b110010 2#
b101111100 B
b101111100 7#
b101111100 A
b101111100 6#
b101111100 @
b101111100 5#
b101111100 ?
b101111100 4#
1l#
b100011 n#
b110010 m#
b101111100 r#
b101111100 q#
b101111100 p#
b101111100 o#
0F
#35000
12
13
1P
1Q
1O
b10 2"
b1 1
b1 p
b1 |
b1 ,"
b1 .#
10
b100011 *
b100011 j
b100011 b"
b100011 P#
b110010 /
b110010 o
b110010 c"
b110010 O#
b101111100 %
b101111100 b
b101111100 ^"
b101111100 T#
b101111100 &
b101111100 d
b101111100 _"
b101111100 S#
b101111100 '
b101111100 f
b101111100 `"
b101111100 R#
1E
#36000
0C
#40000
0E
#45000
12
13
1`
0P
0Q
0O
b1 /"
b10001001100 "#
b1100100 !#
b0 z
b101111100 {
b101111100 \
b101111100 U"
b101111100 $#
b10 1
b10 p
b10 |
b10 ,"
b10 .#
b100011 i
b100011 S"
b100011 e"
b110010 n
b110010 T"
b110010 d"
b110010 y"
b101111100 a
b101111100 u
b101111100 O"
b101111100 i"
b101111100 c
b101111100 v
b101111100 P"
b101111100 h"
b101111100 e
b101111100 w
b101111100 Q"
b101111100 g"
b101111100 g
b101111100 x
b101111100 R"
b101111100 f"
1E
#50000
0E
#55000
b1 N
b1 0"
b1 N"
1`
b10 /"
b1 ."
1E
#60000
0E
#65000
b10 N
b10 0"
b10 N"
1`
b11 /"
b10 ."
1E
#70000
0E
#75000
b11 N
b11 0"
b11 N"
1`
b0 /"
b11 2"
b11 ."
1E
#80000
0E
#85000
b100101100 [
b100101100 \"
b100101100 %#
12
13
b1 J
b1 3"
b1 ]"
b100 m
b100 -"
b100 ##
b1 M
b1 1"
b1 V"
b0 N
b0 0"
b0 N"
1`
b1 /"
b0 ."
b11 1
b11 p
b11 |
b11 ,"
b11 .#
1E
#90000
0E
#95000
b1 N
b1 0"
b1 N"
b100 m
b100 -"
b100 ##
b1 M
b1 1"
b1 V"
b1 J
b1 3"
b1 ]"
1`
b10 /"
b1 ."
1E
#100000
0E
#105000
b100 m
b100 -"
b100 ##
b1 M
b1 1"
b1 V"
b10 N
b10 0"
b10 N"
b1 J
b1 3"
b1 ]"
1`
b11 /"
b10 ."
1E
#110000
0E
#115000
b100 m
b100 -"
b100 ##
b1 M
b1 1"
b1 V"
b11 N
b11 0"
b11 N"
b1 J
b1 3"
b1 ]"
1`
b100 2"
b11 ."
1E
#120000
0E
#125000
b111100 [
b111100 \"
b111100 %#
b100011 \
b100011 U"
b100011 $#
12
13
b10 m
b10 -"
b10 ##
b10 M
b10 1"
b10 V"
b101 N
b101 0"
b101 N"
b10 J
b10 3"
b10 ]"
1`
b110 2"
b100 1
b100 p
b100 |
b100 ,"
b100 .#
1E
#130000
0E
#135000
b1010000 [
b1010000 \"
b1010000 %#
b110010 \
b110010 U"
b110010 $#
12
13
b100 M
b100 1"
b100 V"
b100 N
b100 0"
b100 N"
b11 J
b11 3"
b11 ]"
1`
b111 2"
b110 1
b110 p
b110 |
b110 ,"
b110 .#
1E
#140000
0E
#145000
1I
b110100100 [
b110100100 \"
b110100100 %#
b101111100 \
b101111100 U"
b101111100 $#
12
13
b101 m
b101 -"
b101 ##
1K
b0 M
b0 1"
b0 V"
b0 N
b0 0"
b0 N"
b0 J
b0 3"
b0 ]"
0`
b1 2"
18#
b111 1
b111 p
b111 |
b111 ,"
b111 .#
1E
#150000
0E
#155000
0I
12
13
1P
1Q
1O
b10 m
b10 -"
b10 ##
0K
b0 /"
b10 2"
b1110000100 "#
08#
b1 1
b1 p
b1 |
b1 ,"
b1 .#
00
b100010 *
b100010 j
b100010 b"
b100010 P#
b10 /
b10 o
b10 c"
b10 O#
b101111010 %
b101111010 b
b101111010 ^"
b101111010 T#
b101111011 '
b101111011 f
b101111011 `"
b101111011 R#
b100010 V#
b10 U#
b100010 ]#
b0 \#
b1111111111 [#
b101111010 Z#
b101111100 Y#
b101111011 X#
b101111100 W#
1E
#160000
0E
#165000
12
13
1`
0P
0Q
0O
b1 /"
b1111100100 "#
b100 !#
b101111010 {
b0 ."
b10 1
b10 p
b10 |
b10 ,"
b10 .#
b100010 i
b100010 S"
b100010 e"
b10 n
b10 T"
b10 d"
b10 y"
b101111010 a
b101111010 u
b101111010 O"
b101111010 i"
b101111011 e
b101111011 w
b101111011 Q"
b101111011 g"
1E
#170000
0E
#175000
b101111011 \
b101111011 U"
b101111011 $#
b1 N
b1 0"
b1 N"
1`
b10 /"
b1 ."
1E
#180000
0E
#185000
b101111100 \
b101111100 U"
b101111100 $#
b10 N
b10 0"
b10 N"
1`
b11 /"
b10 ."
1E
#190000
0E
#195000
b101111010 \
b101111010 U"
b101111010 $#
b11 N
b11 0"
b11 N"
1`
b0 /"
b11 2"
b11 ."
1E
#200000
0E
#205000
b100101100 [
b100101100 \"
b100101100 %#
b101111100 \
b101111100 U"
b101111100 $#
12
13
b1 J
b1 3"
b1 ]"
b100 m
b100 -"
b100 ##
b1 M
b1 1"
b1 V"
b0 N
b0 0"
b0 N"
1`
b1 /"
b0 ."
b11 1
b11 p
b11 |
b11 ,"
b11 .#
1E
#210000
0E
#215000
b101111011 \
b101111011 U"
b101111011 $#
b1 N
b1 0"
b1 N"
b100 m
b100 -"
b100 ##
b1 M
b1 1"
b1 V"
b1 J
b1 3"
b1 ]"
1`
b10 /"
b1 ."
1E
#220000
0E
#225000
b101111100 \
b101111100 U"
b101111100 $#
b100 m
b100 -"
b100 ##
b1 M
b1 1"
b1 V"
b10 N
b10 0"
b10 N"
b1 J
b1 3"
b1 ]"
1`
b11 /"
b10 ."
1E
#230000
0E
#235000
b101111010 \
b101111010 U"
b101111010 $#
b100 m
b100 -"
b100 ##
b1 M
b1 1"
b1 V"
b11 N
b11 0"
b11 N"
b1 J
b1 3"
b1 ]"
1`
b100 2"
b11 ."
1E
#240000
0E
#245000
b111100 [
b111100 \"
b111100 %#
b100010 \
b100010 U"
b100010 $#
12
13
b10 m
b10 -"
b10 ##
b10 M
b10 1"
b10 V"
b101 N
b101 0"
b101 N"
b10 J
b10 3"
b10 ]"
1`
b110 2"
b100 1
b100 p
b100 |
b100 ,"
b100 .#
1E
#250000
0E
#255000
b1010000 [
b1010000 \"
b1010000 %#
b10 \
b10 U"
b10 $#
12
13
b100 M
b100 1"
b100 V"
b100 N
b100 0"
b100 N"
b11 J
b11 3"
b11 ]"
1`
b111 2"
b110 1
b110 p
b110 |
b110 ,"
b110 .#
1E
#260000
0E
#265000
1I
b110100100 [
b110100100 \"
b110100100 %#
b101111100 \
b101111100 U"
b101111100 $#
12
13
b101 m
b101 -"
b101 ##
1K
b0 M
b0 1"
b0 V"
b0 N
b0 0"
b0 N"
b0 J
b0 3"
b0 ]"
0`
b1 2"
18#
b111 1
b111 p
b111 |
b111 ,"
b111 .#
1E
#270000
0E
#275000
0I
b1111100000 "#
12
13
1P
1Q
1O
b10 m
b10 -"
b10 ##
0K
b0 /"
b10 2"
b1111100100 +
b1111100100 l
b1111100100 }"
b1111100100 k
b1111100100 ~"
08#
b1 1
b1 p
b1 |
b1 ,"
b1 .#
b100001 *
b100001 j
b100001 b"
b100001 P#
b101111000 %
b101111000 b
b101111000 ^"
b101111000 T#
b101111010 '
b101111010 f
b101111010 `"
b101111010 R#
b100001 V#
b100001 ]#
b101111000 Z#
b101111010 X#
1E
#280000
0E
#285000
12
13
1`
0P
0Q
0O
b1 /"
b101111000 {
b0 ."
b10 1
b10 p
b10 |
b10 ,"
b10 .#
b100001 i
b100001 S"
b100001 e"
b101111000 a
b101111000 u
b101111000 O"
b101111000 i"
b101111010 e
b101111010 w
b101111010 Q"
b101111010 g"
1E
#290000
0E
#295000
b101111010 \
b101111010 U"
b101111010 $#
b1 N
b1 0"
b1 N"
1`
b10 /"
b1 ."
1E
#300000
0E
#305000
b101111100 \
b101111100 U"
b101111100 $#
b10 N
b10 0"
b10 N"
1`
b11 /"
b10 ."
1E
#310000
0E
#315000
b101111000 \
b101111000 U"
b101111000 $#
b11 N
b11 0"
b11 N"
1`
b0 /"
b11 2"
b11 ."
1E
#320000
0E
#325000
b100101100 [
b100101100 \"
b100101100 %#
b101111100 \
b101111100 U"
b101111100 $#
12
13
b1 J
b1 3"
b1 ]"
b100 m
b100 -"
b100 ##
b1 M
b1 1"
b1 V"
b0 N
b0 0"
b0 N"
1`
b1 /"
b0 ."
b11 1
b11 p
b11 |
b11 ,"
b11 .#
1E
#330000
0E
#335000
b101111010 \
b101111010 U"
b101111010 $#
b1 N
b1 0"
b1 N"
b100 m
b100 -"
b100 ##
b1 M
b1 1"
b1 V"
b1 J
b1 3"
b1 ]"
1`
b10 /"
b1 ."
1E
#336000
b110100100 k#
b0 j#
b1 G
#340000
0E
#345000
b101111100 \
b101111100 U"
b101111100 $#
b100 m
b100 -"
b100 ##
b1 M
b1 1"
b1 V"
b10 N
b10 0"
b10 N"
b1 J
b1 3"
b1 ]"
1`
b11 /"
b10 ."
1E
#350000
0E
#355000
b101111000 \
b101111000 U"
b101111000 $#
b100 m
b100 -"
b100 ##
b1 M
b1 1"
b1 V"
b11 N
b11 0"
b11 N"
b1 J
b1 3"
b1 ]"
1`
b100 2"
b11 ."
1E
#356000
17"
06"
0!
1:
#360000
0E
#365000
07"
b111100 [
b111100 \"
b111100 %#
b100001 \
b100001 U"
b100001 $#
12
13
b10 m
b10 -"
b10 ##
b10 M
b10 1"
b10 V"
b101 N
b101 0"
b101 N"
b10 J
b10 3"
b10 ]"
1`
b110 2"
b100 1
b100 p
b100 |
b100 ,"
b100 .#
b1 M"
0K"
1E
#370000
0E
#375000
b1010000 [
b1010000 \"
b1010000 %#
b10 \
b10 U"
b10 $#
12
13
b100 M
b100 1"
b100 V"
b100 N
b100 0"
b100 N"
b11 J
b11 3"
b11 ]"
1`
b111 2"
b110 1
b110 p
b110 |
b110 ,"
b110 .#
1E
#376000
14"
06
#380000
0E
#385000
1I
b110100100 [
b110100100 \"
b110100100 %#
b101111100 \
b101111100 U"
b101111100 $#
04"
12
13
b101 m
b101 -"
b101 ##
1K
b0 M
b0 1"
b0 V"
b0 N
b0 0"
b0 N"
b0 J
b0 3"
b0 ]"
0`
b1 2"
18#
b111 1
b111 p
b111 |
b111 ,"
b111 .#
0J"
1E
#390000
0E
#395000
0I
b1111011100 "#
12
13
1P
1Q
1O
b10 m
b10 -"
b10 ##
0K
b0 /"
b10 2"
b1111100000 +
b1111100000 l
b1111100000 }"
b1111100000 k
b1111100000 ~"
08#
b1 1
b1 p
b1 |
b1 ,"
b1 .#
b100000 *
b100000 j
b100000 b"
b100000 P#
b101110110 %
b101110110 b
b101110110 ^"
b101110110 T#
b101111001 '
b101111001 f
b101111001 `"
b101111001 R#
b100000 V#
b100000 ]#
b101110110 Z#
b101111001 X#
1E
#396000
16"
1!
0:
b111 i#
b10000100 h#
#400000
0E
#405000
12
13
1`
0P
0Q
0O
b1 /"
b101110110 {
b0 ."
b10 1
b10 p
b10 |
b10 ,"
b10 .#
1K"
b100000 i
b100000 S"
b100000 e"
b101110110 a
b101110110 u
b101110110 O"
b101110110 i"
b101111001 e
b101111001 w
b101111001 Q"
b101111001 g"
1E
#410000
0E
